Lab 5
…
d <- max(d_count)
d

## [1] 5873

Response: Yes. As can be seen from the output, the number of accidents each day varies. The max accidents happen on Day 7 of the week.

Problem 1.2

#1.2 what time of the day do accidents happen (use variable HOUR)?
h_count <- count(acc,HOUR) 
h_count

## # A tibble: 25 x 2
##     HOUR     n
##    <int> <int>
##  1     0  1321
##  2     1  1177
##  3     2  1241
##  4     3   957
##  5     4   813
##  6     5  1065
##  7     6  1282
##  8     7  1162
##  9     8   945
## 10     9   929
## # ... with 15 more rows
…
In the plot above, we see that the weekend dates, Friday and Saturday, both have the most accidents. This is most likely due to most people being off and traveling more on the weekends, plus a likely abundance of drunk driving. There is also a distance third-place with Sunday, also a travel day, but it likely has fewer cases of drunk driving, or perhaps some early in the morning (i.e if someone was up late on Saturday night/Sunday morning).

hour

## # A tibble: 25 x 2
##     HOUR  hour
##    <int> <int>
##  1     0  1739
##  2     1  1509
##  3     2  1635
##  4     3  1228
##  5     4  1078
##  6     5  1537
##  7     6  1959
##  8     7  1896
##  9     8  1528
## 10     9  1564
## # ... with 15 more rows
…
